^C:\USERS\KOROB\SOURCE\REPOS\ALGOLAB1\ZAD2.2\STDAFX.CPP
C:\USERS\KOROB\SOURCE\REPOS\ALGOLAB1\ZAD2.2\DEBUG\ZAD2.2.PCH
C:\USERS\KOROB\SOURCE\REPOS\ALGOLAB1\ZAD2.2\DEBUG\VC141.PDB
C:\USERS\KOROB\SOURCE\REPOS\ALGOLAB1\ZAD2.2\DEBUG\VC141.IDB
C:\USERS\KOROB\SOURCE\REPOS\ALGOLAB1\ZAD2.2\DEBUG\STDAFX.OBJ
^C:\USERS\KOROB\SOURCE\REPOS\ALGOLAB1\ZAD2.2\ZAD22.CPP
C:\USERS\KOROB\SOURCE\REPOS\ALGOLAB1\ZAD2.2\DEBUG\VC141.PDB
C:\USERS\KOROB\SOURCE\REPOS\ALGOLAB1\ZAD2.2\DEBUG\VC141.IDB
C:\USERS\KOROB\SOURCE\REPOS\ALGOLAB1\ZAD2.2\DEBUG\ZAD22.OBJ
