^C:\USERS\KOROB\SOURCE\REPOS\ALGOLAB3\NODE\STDAFX.CPP
C:\USERS\KOROB\SOURCE\REPOS\ALGOLAB3\NODE\DEBUG\NODE.PCH
C:\USERS\KOROB\SOURCE\REPOS\ALGOLAB3\NODE\DEBUG\VC141.PDB
C:\USERS\KOROB\SOURCE\REPOS\ALGOLAB3\NODE\DEBUG\VC141.IDB
C:\USERS\KOROB\SOURCE\REPOS\ALGOLAB3\NODE\DEBUG\STDAFX.OBJ
^C:\USERS\KOROB\SOURCE\REPOS\ALGOLAB3\NODE\NODE.CPP
C:\USERS\KOROB\SOURCE\REPOS\ALGOLAB3\NODE\DEBUG\VC141.PDB
C:\USERS\KOROB\SOURCE\REPOS\ALGOLAB3\NODE\DEBUG\VC141.IDB
C:\USERS\KOROB\SOURCE\REPOS\ALGOLAB3\NODE\DEBUG\NODE.OBJ
