^C:\USERS\KOROB\SOURCE\REPOS\ALGOLAB1\ALGOLAB1\DEBUG\ALGOLAB1.OBJ|C:\USERS\KOROB\SOURCE\REPOS\ALGOLAB1\ALGOLAB1\DEBUG\STDAFX.OBJ
C:\USERS\KOROB\SOURCE\REPOS\ALGOLAB1\DEBUG\ALGOLAB1.EXE
C:\USERS\KOROB\SOURCE\REPOS\ALGOLAB1\DEBUG\ALGOLAB1.ILK
C:\USERS\KOROB\SOURCE\REPOS\ALGOLAB1\DEBUG\ALGOLAB1.PDB
