^C:\USERS\KOROB\SOURCE\REPOS\ALGOLAB5\ALGOLAB5\STDAFX.CPP
/c /ZI /nologo /W3 /WX- /diagnostics:classic /sdl /Od /Oy- /D WIN32 /D _DEBUG /D _CONSOLE /D _UNICODE /D UNICODE /Gm /EHsc /RTC1 /MDd /GS /fp:precise /Zc:wchar_t /Zc:forScope /Zc:inline /Yc"stdafx.h" /Fp"DEBUG\ALGOLAB5.PCH" /Fo"DEBUG\\" /Fd"DEBUG\VC141.PDB" /Gd /TP /analyze- C:\USERS\KOROB\SOURCE\REPOS\ALGOLAB5\ALGOLAB5\STDAFX.CPP
^C:\USERS\KOROB\SOURCE\REPOS\ALGOLAB5\ALGOLAB5\ALGOLAB5.CPP
/c /ZI /nologo /W3 /WX- /diagnostics:classic /sdl /Od /Oy- /D WIN32 /D _DEBUG /D _CONSOLE /D _UNICODE /D UNICODE /Gm /EHsc /RTC1 /MDd /GS /fp:precise /Zc:wchar_t /Zc:forScope /Zc:inline /Yu"stdafx.h" /Fp"DEBUG\ALGOLAB5.PCH" /Fo"DEBUG\\" /Fd"DEBUG\VC141.PDB" /Gd /TP /analyze- C:\USERS\KOROB\SOURCE\REPOS\ALGOLAB5\ALGOLAB5\ALGOLAB5.CPP
