^C:\USERS\KOROB\SOURCE\REPOS\ALGOLAB3\ALGOLAB3\DEBUG\ALGOLAB3.OBJ|C:\USERS\KOROB\SOURCE\REPOS\ALGOLAB3\ALGOLAB3\DEBUG\STDAFX.OBJ
C:\USERS\KOROB\SOURCE\REPOS\ALGOLAB3\DEBUG\ALGOLAB3.EXE
C:\USERS\KOROB\SOURCE\REPOS\ALGOLAB3\DEBUG\ALGOLAB3.ILK
C:\USERS\KOROB\SOURCE\REPOS\ALGOLAB3\DEBUG\ALGOLAB3.PDB
