^C:\USERS\KOROB\SOURCE\REPOS\ALGOLAB2\NODE2D\STDAFX.CPP
C:\WINDOWS\GLOBALIZATION\SORTING\SORTDEFAULT.NLS
C:\PROGRAM FILES (X86)\MICROSOFT VISUAL STUDIO\2017\ENTERPRISE\VC\TOOLS\MSVC\14.11.25503\BIN\HOSTX86\X86\1049\CLUI.DLL
C:\PROGRAM FILES (X86)\MICROSOFT VISUAL STUDIO\2017\ENTERPRISE\VC\TOOLS\MSVC\14.11.25503\BIN\HOSTX86\X86\MSPDBSRV.EXE
C:\WINDOWS\SYSTEM32\TZRES.DLL
C:\USERS\KOROB\SOURCE\REPOS\ALGOLAB2\NODE2D\STDAFX.H
C:\USERS\KOROB\SOURCE\REPOS\ALGOLAB2\NODE2D\TARGETVER.H
C:\PROGRAM FILES (X86)\WINDOWS KITS\10\INCLUDE\10.0.15063.0\SHARED\SDKDDKVER.H
C:\PROGRAM FILES (X86)\WINDOWS KITS\10\INCLUDE\10.0.15063.0\UCRT\STDIO.H
C:\PROGRAM FILES (X86)\WINDOWS KITS\10\INCLUDE\10.0.15063.0\UCRT\CORECRT.H
C:\PROGRAM FILES (X86)\MICROSOFT VISUAL STUDIO\2017\ENTERPRISE\VC\TOOLS\MSVC\14.11.25503\INCLUDE\VCRUNTIME.H
C:\PROGRAM FILES (X86)\MICROSOFT VISUAL STUDIO\2017\ENTERPRISE\VC\TOOLS\MSVC\14.11.25503\INCLUDE\SAL.H
C:\PROGRAM FILES (X86)\MICROSOFT VISUAL STUDIO\2017\ENTERPRISE\VC\TOOLS\MSVC\14.11.25503\INCLUDE\CONCURRENCYSAL.H
C:\PROGRAM FILES (X86)\MICROSOFT VISUAL STUDIO\2017\ENTERPRISE\VC\TOOLS\MSVC\14.11.25503\INCLUDE\VADEFS.H
C:\PROGRAM FILES (X86)\WINDOWS KITS\10\INCLUDE\10.0.15063.0\UCRT\CORECRT_WSTDIO.H
C:\PROGRAM FILES (X86)\WINDOWS KITS\10\INCLUDE\10.0.15063.0\UCRT\CORECRT_STDIO_CONFIG.H
C:\PROGRAM FILES (X86)\WINDOWS KITS\10\INCLUDE\10.0.15063.0\UCRT\TCHAR.H
C:\PROGRAM FILES (X86)\WINDOWS KITS\10\INCLUDE\10.0.15063.0\UCRT\WCHAR.H
C:\PROGRAM FILES (X86)\WINDOWS KITS\10\INCLUDE\10.0.15063.0\UCRT\CORECRT_MEMCPY_S.H
C:\PROGRAM FILES (X86)\WINDOWS KITS\10\INCLUDE\10.0.15063.0\UCRT\ERRNO.H
C:\PROGRAM FILES (X86)\MICROSOFT VISUAL STUDIO\2017\ENTERPRISE\VC\TOOLS\MSVC\14.11.25503\INCLUDE\VCRUNTIME_STRING.H
C:\PROGRAM FILES (X86)\WINDOWS KITS\10\INCLUDE\10.0.15063.0\UCRT\CORECRT_WCONIO.H
C:\PROGRAM FILES (X86)\WINDOWS KITS\10\INCLUDE\10.0.15063.0\UCRT\CORECRT_WCTYPE.H
C:\PROGRAM FILES (X86)\WINDOWS KITS\10\INCLUDE\10.0.15063.0\UCRT\CORECRT_WDIRECT.H
C:\PROGRAM FILES (X86)\WINDOWS KITS\10\INCLUDE\10.0.15063.0\UCRT\CORECRT_WIO.H
C:\PROGRAM FILES (X86)\WINDOWS KITS\10\INCLUDE\10.0.15063.0\UCRT\CORECRT_SHARE.H
C:\PROGRAM FILES (X86)\WINDOWS KITS\10\INCLUDE\10.0.15063.0\UCRT\CORECRT_WPROCESS.H
C:\PROGRAM FILES (X86)\WINDOWS KITS\10\INCLUDE\10.0.15063.0\UCRT\CORECRT_WSTDLIB.H
C:\PROGRAM FILES (X86)\WINDOWS KITS\10\INCLUDE\10.0.15063.0\UCRT\CORECRT_WSTRING.H
C:\PROGRAM FILES (X86)\WINDOWS KITS\10\INCLUDE\10.0.15063.0\UCRT\CORECRT_WTIME.H
C:\PROGRAM FILES (X86)\WINDOWS KITS\10\INCLUDE\10.0.15063.0\UCRT\SYS\STAT.H
C:\PROGRAM FILES (X86)\WINDOWS KITS\10\INCLUDE\10.0.15063.0\UCRT\SYS\TYPES.H
^C:\USERS\KOROB\SOURCE\REPOS\ALGOLAB2\NODE2D\NODE2D.CPP
C:\WINDOWS\GLOBALIZATION\SORTING\SORTDEFAULT.NLS
C:\PROGRAM FILES (X86)\MICROSOFT VISUAL STUDIO\2017\ENTERPRISE\VC\TOOLS\MSVC\14.11.25503\BIN\HOSTX86\X86\1049\CLUI.DLL
C:\USERS\KOROB\SOURCE\REPOS\ALGOLAB2\NODE2D\DEBUG\NODE2D.PCH
C:\WINDOWS\SYSTEM32\TZRES.DLL
C:\PROGRAM FILES (X86)\WINDOWS KITS\10\INCLUDE\10.0.15063.0\UCRT\STDLIB.H
C:\PROGRAM FILES (X86)\WINDOWS KITS\10\INCLUDE\10.0.15063.0\UCRT\CORECRT_MALLOC.H
C:\PROGRAM FILES (X86)\WINDOWS KITS\10\INCLUDE\10.0.15063.0\UCRT\CORECRT_SEARCH.H
C:\PROGRAM FILES (X86)\WINDOWS KITS\10\INCLUDE\10.0.15063.0\UCRT\STDDEF.H
C:\PROGRAM FILES (X86)\MICROSOFT VISUAL STUDIO\2017\ENTERPRISE\VC\TOOLS\MSVC\14.11.25503\INCLUDE\LIMITS.H
C:\PROGRAM FILES (X86)\MICROSOFT VISUAL STUDIO\2017\ENTERPRISE\VC\TOOLS\MSVC\14.11.25503\INCLUDE\VCRUNTIME.H
C:\PROGRAM FILES (X86)\MICROSOFT VISUAL STUDIO\2017\ENTERPRISE\VC\TOOLS\MSVC\14.11.25503\BIN\HOSTX86\X86\MSPDBSRV.EXE
