^C:\USERS\KOROB\SOURCE\REPOS\ALGOLAB2\NODE2D\DEBUG\NODE2D.OBJ|C:\USERS\KOROB\SOURCE\REPOS\ALGOLAB2\NODE2D\DEBUG\STDAFX.OBJ
C:\USERS\KOROB\SOURCE\REPOS\ALGOLAB2\DEBUG\NODE2D.EXE
C:\USERS\KOROB\SOURCE\REPOS\ALGOLAB2\DEBUG\NODE2D.ILK
C:\USERS\KOROB\SOURCE\REPOS\ALGOLAB2\DEBUG\NODE2D.PDB
